%YAML 1.1
%TAG !u! tag:unity3d.com,2011:
--- !u!1045 &1
EditorBuildSettings:
  m_ObjectHideFlags: 0
  serializedVersion: 2
  m_Scenes:
  - enabled: 1
    path: Assets/Scenes/MENU.unity
    guid: a32c8b9afe52e2d4f9943c6347eb59b4
  - enabled: 1
    path: Assets/Scenes/EscenaPrincipal.unity
    guid: 99c9720ab356a0642a771bea13969a05
  - enabled: 1
    path: Assets/Scenes/EscenaMinijuego.unity
    guid: 39a971782e19737469595f446547639b
  - enabled: 1
    path: Assets/Scenes/GAME OVER.unity
    guid: 3f69567c58e1ea842b17c8c6bc144837
  m_configObjects: {}
